…
quick_group_summarise <- function(data, x, y) {
  data %>%
  group_by({{x}}) %>%
  summarise(mean = mean({{y}}, na.rm = TRUE))
  }
```

\#Exercise 3: Include Examples (15 points)

``` r
quick_group_summarise(steam_games, genre, original_price)
```

    ## # A tibble: 1,769 × 2
    ##    genre                                                                    mean
    ##    <chr>                                                                   <dbl>
    ##  1 Accounting                                                              47.5 
    ##  2 Accounting,Animation & Modeling,Audio Production,Design & Illustration… 20.0 
    ##  3 Accounting,Animation & Modeling,Audio Production,Design & Illustration…  5.00
    ##  4 Accounting,Education,Software Training,Utilities,Early Access            0   
    ##  5 Action                                                                  11.0 
    ##  6 Action,Adventure                                                        13.8 
    ##  7 Action,Adventure,Casual                                                 41.5 
    ##  8 Action,Adventure,Casual,Early Access                                    15.0 
    ##  9 Action,Adventure,Casual,Free to Play                                     4.99
    ## 10 Action,Adventure,Casual,Free to Play,Early Access                        0   
    ## # … with 1,759 more rows

``` r
#In this example I am testing whether the function works

quick_group_summarise(steam_games, languages, original_price)
```

    ## # A tibble: 5,497 × 2
    ##    languages                                                                mean
    ##    <chr>                                                                   <dbl>
    ##  1 Czech, Dutch, English, French, German, Italian, Polish, Russian, Spani…  20.0
    ##  2 Czech, Dutch, English, French, Italian, Polish, Russian, Spanish - Spa…  15.0
    ##  3 Czech, English, French, German, Italian, Polish, Russian, Spanish - Sp…  26.5
    ##  4 Czech, English, French, German, Italian, Polish, Russian, Spanish - Sp…  30.0
    ##  5 Czech, English, French, German, Italian, Polish, Spanish - Spain         25.0
    ##  6 Danish, Dutch, English, French, German, Italian, Norwegian, Polish, Po…  30.0
    ##  7 Dutch, English, French, German, Italian, Spanish - Spain, Czech, Finni… NaN  
    ##  8 English                                                                  98.2
    ##  9 English, Czech                                                          NaN  
    ## 10 English, Czech, Danish, Dutch, Finnish, French, German, Hungarian, Ita…  30.0
    ## # … with 5,487 more rows

``` r
#In this example I am testing whether the function still works with a different x variable chosen 

quick_group_summarise(vancouver_trees, genus_name, diameter)
```

    ## # A tibble: 97 × 2
    ##    genus_name   mean
    ##    <chr>       <dbl>
    ##  1 ABIES       12.9 
    ##  2 ACER        10.6 
    ##  3 AESCULUS    23.7 
    ##  4 AILANTHUS   15.9 
    ##  5 ALBIZIA      6   
    ##  6 ALNUS       17.5 
    ##  7 AMELANCHIER  3.21
    ##  8 ARALIA       6.81
    ##  9 ARAUCARIA   11.4 
    ## 10 ARBUTUS     18.4 
    ## # … with 87 more rows
…
